* Host localhost:3000 was resolved.
* IPv6: ::1
* IPv4: 127.0.0.1
  % Total    % Received % Xferd  Average Speed   Time    Time     Time  Current
                                 Dload  Upload   Total   Spent    Left  Speed
  0     0    0     0    0     0      0      0 --:--:-- --:--:-- --:--:--     0*   Trying [::1]:3000...
* Connected to localhost (::1) port 3000
> GET /api/tools HTTP/1.1
> Host: localhost:3000
> User-Agent: curl/8.7.1
> Accept: */*
> 
* Request completely sent off
< HTTP/1.1 200 OK
< Content-Security-Policy: default-src 'self'; base-uri 'self'; object-src 'none'; frame-ancestors 'self'; form-action 'self' https://checkout.stripe.com; img-src 'self' data: blob: https:; font-src 'self' data: https://fonts.gstatic.com; style-src 'self' 'unsafe-inline' https://fonts.googleapis.com; script-src 'self' 'unsafe-inline' 'unsafe-eval' https://js.stripe.com https://www.googletagmanager.com https://www.google-analytics.com https://va.vercel-scripts.com; connect-src 'self' https://api.stripe.com https://www.google-analytics.com https://www.googletagmanager.com https://vitals.vercel-insights.com https://va.vercel-scripts.com https://*.ingest.sentry.io https://sentry.io; frame-src https://js.stripe.com https://hooks.stripe.com; worker-src 'self' blob:; upgrade-insecure-requests
< X-DNS-Prefetch-Control: on
< Strict-Transport-Security: max-age=63072000; includeSubDomains; preload
< X-XSS-Protection: 1; mode=block
< x-frame-options: DENY
< x-content-type-options: nosniff
< referrer-policy: strict-origin-when-cross-origin
< Permissions-Policy: camera=(), microphone=(), geolocation=()
< set-cookie: csrf_token=46c01b028222a4f78338be4f6f76ac65e51002fb4f9d84552bbd482a28328945; Path=/; Expires=Wed, 11 Feb 2026 03:55:02 GMT; Max-Age=86400; Secure; HttpOnly; SameSite=strict
< x-csrf-token: 46c01b028222a4f78338be4f6f76ac65e51002fb4f9d84552bbd482a28328945
< vary: rsc, next-router-state-tree, next-router-prefetch, next-router-segment-prefetch
< content-type: application/json
< Date: Tue, 10 Feb 2026 03:55:03 GMT
< Connection: keep-alive
< Keep-Alive: timeout=5
< Transfer-Encoding: chunked
< 
  0     0    0     0    0     0      0      0 --:--:-- --:--:-- --:--:--     0{ [10459 bytes data]
{"data":{"tools":[{"id":"cmlenas890006g026fooo0p8k","slug":"retry-test-tool-1770609697074","title":"Retry Test Tool 1770609697074","description":"Testing webhook retry logic","category":"productivity","pricing":"paid","websiteUrl":"https://retry-example.com","affiliateUrl":null,"features":[],"color":"text-foreground","bgGradient":"from-transparent to-transparent","createdAt":"2026-02-09T04:01:39.945Z","updatedAt":"2026-02-09T04:01:39.945Z","cons":[],"icon":null,"pros":[],"isFeatured":false,"tier":"priority"},{"id":"cmlen1qet0002jveygpfo3sxh","slug":"test-tool-1770609271948","title":"Test Tool 1770609271948","description":"A test tool description","category":"productivity","pricing":"paid","websiteUrl":"https://example.com","affiliateUrl":null,"features":[],"color":"text-foreground","bgGradient":"from-transparent to-transparent","createdAt":"2026-02-09T03:54:37.686Z","updatedAt":"2026-02-09T03:54:37.686Z","cons":[],"icon":null,"pros":[],"isFeatured":false,"tier":"priority"},{"id":"cml8gam22000k9i1a2kg4m84j","slug":"windsurf","title":"Windsurf","description":"The first agentic IDE that flows with you.","category":"Coding","pricing":"Freemium","websiteUrl":"https://codeium.com/windsurf","affiliateUrl":null,"features":["Flow State AI","Deep Codebase Indexing","Context-aware Thinking"],"color":"text-cyan-400","bgGradient":"from-cyan-500/10 to-transparent","createdAt":"2026-02-04T19:58:57.578Z","updatedAt":"2026-02-04T19:58:57.578Z","cons":[],"icon":null,"pros":[],"isFeatured":false,"tier":"free"},{"id":"cml8galyx000j9i1a4z02tqoe","slug":"aider","title":"Aider","description":"Command-line AI pairing that edits code directly in your local files.","category":"Coding","pricing":"Free","websiteUrl":"https://aider.chat","affiliateUrl":null,"features":["CLI First","Git-aware","Multi-file Editing"],"color":"text-zinc-900 dark:text-zinc-300","bgGradient":"from-zinc-500/10 to-transparent","createdAt":"2026-02-04T19:58:57.466Z","updatedAt":"2026-02-04T19:58:57.466Z","cons":[],"icon":null,"pros":[],"isFeatured":false,"tier":"free"},{"id":"cml8galwe000i9i1awkzpfqcz","slug":"cosine","title":"Cosine","description":"The AI code knowledge base for complex repositories.","category":"Coding","pricing":"Freemium","websiteUrl":"https://cosine.sh","affiliateUrl":null,"features":["Genie 2 Architecture","Deep Semantic Search","On-prem Isolation"],"color":"text-blue-500","bgGradient":"from-blue-500/10 to-transparent","createdAt":"2026-02-04T19:58:57.375Z","updatedAt":"2026-02-04T19:58:57.375Z","cons":[],"icon":null,"pros":[],"isFeatured":false,"tier":"free"},{"id":"cml8galt4000h9i1ay315p9lt","slug":"coderabbit","title":"CodeRabbit","description":"AI-powered code reviews that actually understand your context.","category":"Coding","pricing":"Freemium","websiteUrl":"https://coderabbit.ai","affiliateUrl":null,"features":["Auto-summaries","Contextual Feedback","Line-by-line Reviews"],"color":"text-emerald-500","bgGradient":"from-emerald-500/10 to-transparent","createdAt":"2026-02-04T19:58:57.257Z","updatedAt":"2026-02-04T19:58:57.257Z","cons":[],"icon":null,"pros":[],"isFeatured":false,"tier":"free"},{"id":"cml8galpt000g9i1aalvl0ck9","slug":"lovable","title":"Lovable","description":"Build full-stack apps at the speed of thought with AI.","category":"Design","pricing":"Freemium","websiteUrl":"https://lovable.dev","affiliateUrl":null,"features":["Full-stack Generation","Supabase Integration","Visual Editing"],"color":"text-pink-400","bgGradient":"from-pink-500/10 to-transparent","createdAt":"2026-02-04T19:58:57.137Z","updatedAt":"2026-02-04T19:58:57.137Z","cons":[],"icon":null,"pros":[],"isFeatured":false,"tier":"free"},{"id":"cml8galm9000f9i1a3ztqkl68","slug":"perplexity","title":"Perplexity","description":"Where knowledge begins.","category":"Assistance","pricing":"Freemium","websiteUrl":"https://perplexity.ai","affiliateUrl":null,"features":["Real-time Search","Citations","Pro Search"],"color":"text-teal-400","bgGradient":"from-teal-500/10 to-transparent","createdAt":"2026-02-04T19:58:57.010Z","updatedAt":"2026-02-04T19:58:57.010Z","cons":[],"icon":null,"pros":[],"isFeatured":false,"tier":"free"},{"id":"cml8galjl000e9i1ayj0pey3x","slug":"v0","title":"v0","description":"Generate UI with simple text prompts.","category":"Design","pricing":"Freemium","websiteUrl":"https://v0.dev","affiliateUrl":"https://v0.dev","features":["React Code Gen","Shadcn UI","Tailwind"],"color":"text-zinc-900 dark:text-zinc-400","bgGradient":"from-zinc-500/10 to-transparent","createdAt":"2026-02-04T19:58:56.913Z","updatedAt":"2026-02-04T19:58:56.913Z","cons":[],"icon":null,"pros":[],"isFeatured":false,"tier":"free"},{"id":"cml8galgn000d9i1avfo64d8z","slug":"builder-io","title":"Builder.io","description":"Visual development platform to ship faster.","category":"Design","pricing":"Freemium","websiteUrl":"https://builder.io","affiliateUrl":null,"features":["Design to Code","Visual CMS","Figma Import"],"color":"text-green-400","bgGradient":"from-green-500/10 to-transparent","createdAt":"2026-02-04T19:58:56.808Z","updatedAt":"2026-02-04T19:58:56.808Z","cons":[],"icon":null,"pros":[],"isFeatured":false,"tier":"free"},{"id":"cml8gale5000c9i1arztwhzxd","slug":"cody","title":"Cody","description":"AI that knows your entire codebase by Sourcegraph.","category":"Coding","pricing":"Freemium","websiteUrl":"https://sourcegraph.com/cody","affiliateUrl":null,"features":["Codebase Search","Context Awareness","Unit Test Generation"],"color":"text-violet-400","bgGradient":"from-violet-500/10 to-transparent","createdAt":"2026-02-04T19:58:56.718Z","updatedAt":"2026-02-04T19:58:56.718Z","cons":[],"icon":null,"pros":[],"isFeatured":false,"tier":"free"},{"id":"cml8galbc000b9i1aof2q16kb","slug":"tabnine","title":"Tabnine","description":"AI code assistant associated with privacy and security.","category":"Coding","pricing":"Freemium","websiteUrl":"https://tabnine.com","affiliateUrl":null,"features":["Private Codebase Training","Local Mode","Security"],"color":"text-purple-400","bgGradient":"from-purple-500/10 to-transparent","createdAt":"2026-02-04T19:58:56.616Z","updatedAt":"2026-02-04T19:58:56.616Z","cons":[],"icon":null,"pros":[],"isFeatured":false,"tier":"free"},{"id":"cml8gal89000a9i1absebj59o","slug":"replit-ai","title":"Replit AI","description":"The AI-powered software development platform.","category":"Coding","pricing":"Freemium","websiteUrl":"https://replit.com/ai","affiliateUrl":null,"features":["Collaborative Coding","Instant Deployment","Ghostwriter"],"color":"text-orange-500","bgGradient":"from-orange-500/10 to-transparent","createdAt":"2026-02-04T19:58:56.505Z","updatedAt":"2026-02-04T19:58:56.505Z","cons":[],"icon":null,"pros":[],"isFeatured":false,"tier":"free"},{"id":"cml8gal5b00099i1auwor05yc","slug":"notion-ai","title":"Notion AI","description":"Your connected workspace, now with intelligence.","category":"Productivity","pricing":"Paid","websiteUrl":"https://notion.so","affiliateUrl":null,"features":["Writing Assistant","Database AI","Summarization"],"color":"text-amber-400","bgGradient":"from-amber-500/10 to-transparent","createdAt":"2026-02-04T19:58:56.399Z","updatedAt":"2026-02-04T19:58:56.399Z","cons":[],"icon":null,"pros":[],"isFeatured":false,"tier":"free"},{"id":"cml8gal2l00089i1aq6wqxxth","slug":"linear","title":"Linear","description":"Project management for high-performance teams.","category":"Management","pricing":"Freemium","websiteUrl":"https://linear.app","affiliateUrl":null,"features":["Issue Tracking","Cycles","Roadmaps"],"color":"text-indigo-400","bgGradient":"from-indigo-500/10 to-transparent","createdAt":"2026-02-04T19:58:56.301Z","updatedAt":"2026-02-04T19:58:56.301Z","cons":[],"icon":null,"pros":[],"isFeatured":false,"tier":"free"},{"id":"cml8gakzn00079i1abda3hssh","slug":"github-copilot","title":"GitHub Copilot","description":"Your AI pair programmer.","category":"Coding","pricing":"Paid","websiteUrl":"https://github.com/features/copilot","affiliateUrl":null,"features":["Autocomplete","Copilot Workspace","Pull Request Summaries"],"color":"text-slate-900 dark:text-slate-200","bgGradient":"from-slate-500/10 to-transparent","createdAt":"2026-02-04T19:58:56.195Z","updatedAt":"2026-02-04100 10446    0 10446    0     0  18688      0 --:--:-- --:--:-- --:--:-- 18686
* Connection #0 to host localhost left intact
T19:58:56.195Z","cons":[],"icon":null,"pros":[],"isFeatured":false,"tier":"free"},{"id":"cml8gakx000069i1a7388gwqw","slug":"ollama","title":"Ollama","description":"Get up and running with large language models locally.","category":"Other","pricing":"Free","websiteUrl":"https://ollama.com","affiliateUrl":null,"features":["Local Inference","Privacy","Llama 3 / Mistral Support"],"color":"text-slate-900 dark:text-slate-100","bgGradient":"from-slate-500/10 to-transparent","createdAt":"2026-02-04T19:58:56.101Z","updatedAt":"2026-02-04T19:58:56.101Z","cons":[],"icon":null,"pros":[],"isFeatured":false,"tier":"free"},{"id":"cml8gakrk00059i1axvgm8stp","slug":"supermaven","title":"Supermaven","description":"The fastest copilot with a 1 million token context.","category":"Coding","pricing":"Freemium","websiteUrl":"https://supermaven.com","affiliateUrl":null,"features":["1M Context Window","Instant Completion","Low Latency"],"color":"text-rose-400","bgGradient":"from-rose-500/10 to-transparent","createdAt":"2026-02-04T19:58:55.904Z","updatedAt":"2026-02-04T19:58:55.904Z","cons":[],"icon":null,"pros":[],"isFeatured":false,"tier":"free"},{"id":"cml8gakp800049i1aa6mymb33","slug":"devin","title":"Devin","description":"The first autonomous AI software engineer.","category":"Coding","pricing":"Paid","websiteUrl":"https://devin.ai","affiliateUrl":null,"features":["Autonomous Coding","Self-Healing","Deployment"],"color":"text-amber-500","bgGradient":"from-amber-500/10 to-transparent","createdAt":"2026-02-04T19:58:55.820Z","updatedAt":"2026-02-04T19:58:55.820Z","cons":[],"icon":null,"pros":[],"isFeatured":false,"tier":"free"},{"id":"cml8gakkj00039i1auioknasl","slug":"cursor","title":"Cursor","description":"The AI-first code editor built for speed.","category":"Coding","pricing":"Freemium","websiteUrl":"https://cursor.sh","affiliateUrl":"https://cursor.sh","features":["AI Chat","Codebase Indexing","Agent Mode"],"color":"text-blue-400","bgGradient":"from-blue-500/10 to-transparent","createdAt":"2026-02-04T19:58:55.651Z","updatedAt":"2026-02-04T19:58:55.651Z","cons":[],"icon":null,"pros":[],"isFeatured":false,"tier":"free"}],"pagination":{"page":1,"limit":20,"total":23,"totalPages":2,"hasMore":true}},"timestamp":"2026-02-10T03:55:03.059Z"}